
**** Build of configuration LUIS for project Copy of Test_drv8833 ****

"C:\\ti\\ccsv6\\utils\\bin\\gmake" -k all 
'Building file: ../Template2_init.c'
'Invoking: ARM Compiler'
"C:/ti/ccsv6/tools/compiler/ti-cgt-arm_5.2.2/bin/armcl" -mv7M4 --code_state=16 --float_support=FPv4SPD16 --abi=eabi -me --include_path="C:/ti/ccsv6/tools/compiler/ti-cgt-arm_5.2.2/include" --include_path="D:/GoogleDrive/Workspaces/Workspaces CCS/Maker_Fair/UserLibs" --include_path="D:/ti/TivaWare" -g --gcc --define=ccs="ccs" --define=PART_TM4C123GH6PM --display_error_number --diag_warning=225 --diag_wrap=off --preproc_with_compile --preproc_dependency="Template2_init.pp"  "../Template2_init.c"
'Finished building: ../Template2_init.c'
' '
'Building file: ../main.c'
'Invoking: ARM Compiler'
"C:/ti/ccsv6/tools/compiler/ti-cgt-arm_5.2.2/bin/armcl" -mv7M4 --code_state=16 --float_support=FPv4SPD16 --abi=eabi -me --include_path="C:/ti/ccsv6/tools/compiler/ti-cgt-arm_5.2.2/include" --include_path="D:/GoogleDrive/Workspaces/Workspaces CCS/Maker_Fair/UserLibs" --include_path="D:/ti/TivaWare" -g --gcc --define=ccs="ccs" --define=PART_TM4C123GH6PM --display_error_number --diag_warning=225 --diag_wrap=off --preproc_with_compile --preproc_dependency="main.pp"  "../main.c"
"../main.c", line 120: warning #179-D: variable "tempB" was declared but never referenced
'Finished building: ../main.c'
' '
'Building file: ../tm4c123gh6pm_startup_ccs.c'
'Invoking: ARM Compiler'
"C:/ti/ccsv6/tools/compiler/ti-cgt-arm_5.2.2/bin/armcl" -mv7M4 --code_state=16 --float_support=FPv4SPD16 --abi=eabi -me --include_path="C:/ti/ccsv6/tools/compiler/ti-cgt-arm_5.2.2/include" --include_path="D:/GoogleDrive/Workspaces/Workspaces CCS/Maker_Fair/UserLibs" --include_path="D:/ti/TivaWare" -g --gcc --define=ccs="ccs" --define=PART_TM4C123GH6PM --display_error_number --diag_warning=225 --diag_wrap=off --preproc_with_compile --preproc_dependency="tm4c123gh6pm_startup_ccs.pp"  "../tm4c123gh6pm_startup_ccs.c"
'Finished building: ../tm4c123gh6pm_startup_ccs.c'
' '
'Building file: D:/GoogleDrive/Workspaces/Workspaces CCS/Maker_Fair/UserLibs/ColorMath.c'
'Invoking: ARM Compiler'
"C:/ti/ccsv6/tools/compiler/ti-cgt-arm_5.2.2/bin/armcl" -mv7M4 --code_state=16 --float_support=FPv4SPD16 --abi=eabi -me --include_path="C:/ti/ccsv6/tools/compiler/ti-cgt-arm_5.2.2/include" --include_path="D:/GoogleDrive/Workspaces/Workspaces CCS/Maker_Fair/UserLibs" --include_path="D:/ti/TivaWare" -g --gcc --define=ccs="ccs" --define=PART_TM4C123GH6PM --display_error_number --diag_warning=225 --diag_wrap=off --preproc_with_compile --preproc_dependency="UserLibs/ColorMath.pp" --obj_directory="UserLibs"  "D:/GoogleDrive/Workspaces/Workspaces CCS/Maker_Fair/UserLibs/ColorMath.c"
'Finished building: D:/GoogleDrive/Workspaces/Workspaces CCS/Maker_Fair/UserLibs/ColorMath.c'
' '
'Building file: D:/GoogleDrive/Workspaces/Workspaces CCS/Maker_Fair/UserLibs/LCD_5110.c'
'Invoking: ARM Compiler'
"C:/ti/ccsv6/tools/compiler/ti-cgt-arm_5.2.2/bin/armcl" -mv7M4 --code_state=16 --float_support=FPv4SPD16 --abi=eabi -me --include_path="C:/ti/ccsv6/tools/compiler/ti-cgt-arm_5.2.2/include" --include_path="D:/GoogleDrive/Workspaces/Workspaces CCS/Maker_Fair/UserLibs" --include_path="D:/ti/TivaWare" -g --gcc --define=ccs="ccs" --define=PART_TM4C123GH6PM --display_error_number --diag_warning=225 --diag_wrap=off --preproc_with_compile --preproc_dependency="UserLibs/LCD_5110.pp" --obj_directory="UserLibs"  "D:/GoogleDrive/Workspaces/Workspaces CCS/Maker_Fair/UserLibs/LCD_5110.c"
'Finished building: D:/GoogleDrive/Workspaces/Workspaces CCS/Maker_Fair/UserLibs/LCD_5110.c'
' '
'Building file: D:/GoogleDrive/Workspaces/Workspaces CCS/Maker_Fair/UserLibs/SRF04.c'
'Invoking: ARM Compiler'
"C:/ti/ccsv6/tools/compiler/ti-cgt-arm_5.2.2/bin/armcl" -mv7M4 --code_state=16 --float_support=FPv4SPD16 --abi=eabi -me --include_path="C:/ti/ccsv6/tools/compiler/ti-cgt-arm_5.2.2/include" --include_path="D:/GoogleDrive/Workspaces/Workspaces CCS/Maker_Fair/UserLibs" --include_path="D:/ti/TivaWare" -g --gcc --define=ccs="ccs" --define=PART_TM4C123GH6PM --display_error_number --diag_warning=225 --diag_wrap=off --preproc_with_compile --preproc_dependency="UserLibs/SRF04.pp" --obj_directory="UserLibs"  "D:/GoogleDrive/Workspaces/Workspaces CCS/Maker_Fair/UserLibs/SRF04.c"
'Finished building: D:/GoogleDrive/Workspaces/Workspaces CCS/Maker_Fair/UserLibs/SRF04.c'
' '
'Building file: D:/GoogleDrive/Workspaces/Workspaces CCS/Maker_Fair/UserLibs/TCS3200.c'
'Invoking: ARM Compiler'
"C:/ti/ccsv6/tools/compiler/ti-cgt-arm_5.2.2/bin/armcl" -mv7M4 --code_state=16 --float_support=FPv4SPD16 --abi=eabi -me --include_path="C:/ti/ccsv6/tools/compiler/ti-cgt-arm_5.2.2/include" --include_path="D:/GoogleDrive/Workspaces/Workspaces CCS/Maker_Fair/UserLibs" --include_path="D:/ti/TivaWare" -g --gcc --define=ccs="ccs" --define=PART_TM4C123GH6PM --display_error_number --diag_warning=225 --diag_wrap=off --preproc_with_compile --preproc_dependency="UserLibs/TCS3200.pp" --obj_directory="UserLibs"  "D:/GoogleDrive/Workspaces/Workspaces CCS/Maker_Fair/UserLibs/TCS3200.c"
'Finished building: D:/GoogleDrive/Workspaces/Workspaces CCS/Maker_Fair/UserLibs/TCS3200.c'
' '
'Building file: D:/GoogleDrive/Workspaces/Workspaces CCS/Maker_Fair/UserLibs/TimerCapture.c'
'Invoking: ARM Compiler'
"C:/ti/ccsv6/tools/compiler/ti-cgt-arm_5.2.2/bin/armcl" -mv7M4 --code_state=16 --float_support=FPv4SPD16 --abi=eabi -me --include_path="C:/ti/ccsv6/tools/compiler/ti-cgt-arm_5.2.2/include" --include_path="D:/GoogleDrive/Workspaces/Workspaces CCS/Maker_Fair/UserLibs" --include_path="D:/ti/TivaWare" -g --gcc --define=ccs="ccs" --define=PART_TM4C123GH6PM --display_error_number --diag_warning=225 --diag_wrap=off --preproc_with_compile --preproc_dependency="UserLibs/TimerCapture.pp" --obj_directory="UserLibs"  "D:/GoogleDrive/Workspaces/Workspaces CCS/Maker_Fair/UserLibs/TimerCapture.c"
'Finished building: D:/GoogleDrive/Workspaces/Workspaces CCS/Maker_Fair/UserLibs/TimerCapture.c'
' '
'Building file: D:/GoogleDrive/Workspaces/Workspaces CCS/Maker_Fair/UserLibs/drv8833.c'
'Invoking: ARM Compiler'
"C:/ti/ccsv6/tools/compiler/ti-cgt-arm_5.2.2/bin/armcl" -mv7M4 --code_state=16 --float_support=FPv4SPD16 --abi=eabi -me --include_path="C:/ti/ccsv6/tools/compiler/ti-cgt-arm_5.2.2/include" --include_path="D:/GoogleDrive/Workspaces/Workspaces CCS/Maker_Fair/UserLibs" --include_path="D:/ti/TivaWare" -g --gcc --define=ccs="ccs" --define=PART_TM4C123GH6PM --display_error_number --diag_warning=225 --diag_wrap=off --preproc_with_compile --preproc_dependency="UserLibs/drv8833.pp" --obj_directory="UserLibs"  "D:/GoogleDrive/Workspaces/Workspaces CCS/Maker_Fair/UserLibs/drv8833.c"
'Finished building: D:/GoogleDrive/Workspaces/Workspaces CCS/Maker_Fair/UserLibs/drv8833.c'
' '
'Building target: Copy of Test_drv8833.out'
'Invoking: ARM Linker'
"C:/ti/ccsv6/tools/compiler/ti-cgt-arm_5.2.2/bin/armcl" -mv7M4 --code_state=16 --float_support=FPv4SPD16 --abi=eabi -me -g --gcc --define=ccs="ccs" --define=PART_TM4C123GH6PM --display_error_number --diag_warning=225 --diag_wrap=off -z -m"Copy of Test_drv8833.map" --heap_size=0 --stack_size=512 -i"C:/ti/ccsv6/tools/compiler/ti-cgt-arm_5.2.2/lib" -i"C:/ti/ccsv6/tools/compiler/ti-cgt-arm_5.2.2/include" --reread_libs --warn_sections --display_error_number --diag_wrap=off --xml_link_info="Copy of Test_drv8833_linkInfo.xml" --rom_model -o "Copy of Test_drv8833.out" "./Template2_init.obj" "./main.obj" "./tm4c123gh6pm_startup_ccs.obj" "./UserLibs/ColorMath.obj" "./UserLibs/LCD_5110.obj" "./UserLibs/SRF04.obj" "./UserLibs/TCS3200.obj" "./UserLibs/TimerCapture.obj" "./UserLibs/drv8833.obj" "../tm4c123gh6pm.cmd"  -l"libc.a" -l"D:/ti/TivaWare\driverlib\ccs\Debug\driverlib.lib" 
<Linking>
'Finished building target: Copy of Test_drv8833.out'
' '

**** Build Finished ****
